<svg xmlns="http://www.w3.org/2000/svg" viewBox="-13777.684 -297.165 42.282 55.108">
  <defs>
    <style>
      .cls-1 {
        fill: #fff;
      }

      .cls-2 {
        fill: none;
        stroke: #676a6e;
        stroke-linecap: round;
        stroke-miterlimit: 10;
        stroke-width: 4px;
      }
    </style>
  </defs>
  <g id="icon-corp-tools-sharek" transform="translate(-13777.684 -297.165)">
    <g id="Group_1490" data-name="Group 1490" transform="translate(0)">
      <path id="Path_965" data-name="Path 965" class="cls-1" d="M88.24,87.75a3.119,3.119,0,0,1-2.022-.88l-10.155-8.7a3.76,3.76,0,0,1,0-5.831l10.154-8.7a2.391,2.391,0,0,1,4.225,1.942V68.8a2.153,2.153,0,0,0,2.151,2.151h3.226c12.843,0,19.355,4.7,19.355,13.979a1.075,1.075,0,1,1-2.151,0c0-8.069-5.467-11.828-17.2-11.828H92.593a4.306,4.306,0,0,1-4.3-4.3V65.573a1.577,1.577,0,0,0-.1-.659,1.564,1.564,0,0,0-.569.349l-10.154,8.7a1.613,1.613,0,0,0,0,2.566l10.155,8.7a1.559,1.559,0,0,0,.569.349,1.568,1.568,0,0,0,.1-.659V78.475a1.075,1.075,0,1,1,2.151,0v6.452A2.6,2.6,0,0,1,89.1,87.565,2.04,2.04,0,0,1,88.24,87.75Z" transform="translate(-74.677 -62.75)"/>
    </g>
    <g id="Group_1491" data-name="Group 1491" transform="translate(21.142 45.833)">
      <path id="Path_966" data-name="Path 966" class="cls-2" d="M114,148" transform="translate(-114 -148)"/>
    </g>
    <g id="Group_1492" data-name="Group 1492" transform="translate(1.787 30.109)">
      <path id="Path_967" data-name="Path 967" class="cls-1" d="M104.933,143.751a2.04,2.04,0,0,1-.856-.184,2.6,2.6,0,0,1-1.346-2.638V137.7a2.153,2.153,0,0,0-2.151-2.151H97.355c-12.843,0-19.355-4.7-19.355-13.979a1.075,1.075,0,0,1,2.151,0c0,8.07,5.467,11.828,17.2,11.828h3.226a4.306,4.306,0,0,1,4.3,4.3v3.226a1.585,1.585,0,0,0,.1.66,1.572,1.572,0,0,0,.569-.349l10.155-8.7a1.614,1.614,0,0,0,0-2.566l-10.155-8.7a1.555,1.555,0,0,0-.569-.349,1.579,1.579,0,0,0-.1.66v6.452a1.075,1.075,0,1,1-2.151,0v-6.452a2.39,2.39,0,0,1,4.224-1.943l10.155,8.7a3.761,3.761,0,0,1,0,5.832l-10.155,8.7A3.119,3.119,0,0,1,104.933,143.751Z" transform="translate(-78 -118.753)"/>
    </g>
  </g>
</svg>
